Final Reflection
…
right_join():Allows to combine variables from two tables keeping all
observation in y

full_join

:Allows to combine variables from two tables keeping all observations
in x and y

filter()

filter(flights,month==1)

## # A tibble: 27,004 x 19
##     year month   day dep_time sched_dep_time dep_delay arr_time sched_arr_time
##    <int> <int> <int>    <int>          <int>     <dbl>    <int>          <int>
##  1  2013     1     1      517            515         2      830            819
##  2  2013     1     1      533            529         4      850            830
##  3  2013     1     1      542            540         2      923            850
##  4  2013     1     1      544            545        -1     1004           1022
##  5  2013     1     1      554            600        -6      812            837
##  6  2013     1     1      554            558        -4      740            728
##  7  2013     1     1      555            600        -5      913            854
##  8  2013     1     1      557            600        -3      709            723
##  9  2013     1     1      557            600        -3      838            846
## 10  2013     1     1      558            600        -2      753            745
## # ... with 26,994 more rows, and 11 more variables: arr_delay <dbl>,
## #   carrier <chr>, flight <int>, tailnum <chr>, origin <chr>, dest <chr>,
## #   air_time <dbl>, distance <dbl>, hour <dbl>, minute <dbl>, time_hour <dttm>

arrange()

arrange(flights,arr_time)

## # A tibble: 336,776 x 19
##     year month   day dep_time sched_dep_time dep_delay arr_time sched_arr_time
##    <int> <int> <int>    <int>          <int>     <dbl>    <int>          <int>
##  1  2013     1     2     2130           2130         0        1             18
##  2  2013     1    11     2157           2000       117        1           2208
##  3  2013     1    11     2253           2249         4        1           2357
##  4  2013     1    14     2122           2130        -8        1              2
##  5  2013     1    14     2246           2250        -4        1              7
##  6  2013     1    15     2304           2245        19        1           2357
##  7  2013     1    16     2018           2025        -7        1           2329
##  8  2013     1    16     2303           2245        18        1           2357
##  9  2013     1    19     2107           2110        -3        1           2355
## 10  2013     1    22     2246           2249        -3        1           2357
## # ... with 336,766 more rows, and 11 more variables: arr_delay <dbl>,
## #   carrier <chr>, flight <int>, tailnum <chr>, origin <chr>, dest <chr>,
## #   air_time <dbl>, distance <dbl>, hour <dbl>, minute <dbl>, time_hour <dttm>

select()

select(flights,day,dep_time,arr_time)

## # A tibble: 336,776 x 3
##      day dep_time arr_time
##    <int>    <int>    <int>
##  1     1      517      830
##  2     1      533      850
##  3     1      542      923
##  4     1      544     1004
##  5     1      554      812
##  6     1      554      740
##  7     1      555      913
##  8     1      557      709
##  9     1      557      838
## 10     1      558      753
## # ... with 336,766 more rows

mutate()

flights_sml <- select(flights, 
  year:day, 
  ends_with("delay"), 
  distance, 
  air_time
)
mutate(flights_sml,
  gain = dep_delay - arr_delay,
  speed = distance / air_time * 60
)

## # A tibble: 336,776 x 9
##     year month   day dep_delay arr_delay distance air_time  gain speed
##    <int> <int> <int>     <dbl>     <dbl>    <dbl>    <dbl> <dbl> <dbl>
##  1  2013     1     1         2        11     1400      227    -9  370.
##  2  2013     1     1         4        20     1416      227   -16  374.
##  3  2013     1     1         2        33     1089      160   -31  408.
##  4  2013     1     1        -1       -18     1576      183    17  517.
##  5  2013     1     1        -6       -25      762      116    19  394.
##  6  2013     1     1        -4        12      719      150   -16  288.
##  7  2013     1     1        -5        19     1065      158   -24  404.
##  8  2013     1     1        -3       -14      229       53    11  259.
##  9  2013     1     1        -3        -8      944      140     5  405.
## 10  2013     1     1        -2         8      733      138   -10  319.
## # ... with 336,766 more rows

group_by and summarise()

by_day <- group_by(flights, year, month, day)
summarise(by_day, delay = mean(dep_delay, na.rm = TRUE))

## `summarise()` has grouped output by 'year', 'month'. You can override using the
## `.groups` argument.

## # A tibble: 365 x 4
## # Groups:   year, month [12]
##     year month   day delay
##    <int> <int> <int> <dbl>
##  1  2013     1     1 11.5 
##  2  2013     1     2 13.9 
##  3  2013     1     3 11.0 
##  4  2013     1     4  8.95
##  5  2013     1     5  5.73
##  6  2013     1     6  7.15
##  7  2013     1     7  5.42
##  8  2013     1     8  2.55
##  9  2013     1     9  2.28
## 10  2013     1    10  2.84
## # ... with 355 more rows

left_join()

airlines<-nycflights13::airlines
flights %>%
  select(year,month,day,carrier) %>% 
  left_join(airlines, by = "carrier")

## # A tibble: 336,776 x 5
##     year month   day carrier name                    
##    <int> <int> <int> <chr>   <chr>                   
##  1  2013     1     1 UA      United Air Lines Inc.   
##  2  2013     1     1 UA      United Air Lines Inc.   
##  3  2013     1     1 AA      American Airlines Inc.  
##  4  2013     1     1 B6      JetBlue Airways         
##  5  2013     1     1 DL      Delta Air Lines Inc.    
##  6  2013     1     1 UA      United Air Lines Inc.   
##  7  2013     1     1 B6      JetBlue Airways         
##  8  2013     1     1 EV      ExpressJet Airlines Inc.
##  9  2013     1     1 B6      JetBlue Airways         
## 10  2013     1     1 AA      American Airlines Inc.  
## # ... with 336,766 more rows

right_join()

flights%>%
  select(year,month,day,carrier)%>%
  right_join(airlines,by="carrier")

## # A tibble: 336,776 x 5
##     year month   day carrier name                    
##    <int> <int> <int> <chr>   <chr>                   
##  1  2013     1     1 UA      United Air Lines Inc.   
##  2  2013     1     1 UA      United Air Lines Inc.   
##  3  2013     1     1 AA      American Airlines Inc.  
##  4  2013     1     1 B6      JetBlue Airways         
##  5  2013     1     1 DL      Delta Air Lines Inc.    
##  6  2013     1     1 UA      United Air Lines Inc.   
##  7  2013     1     1 B6      JetBlue Airways         
##  8  2013     1     1 EV      ExpressJet Airlines Inc.
##  9  2013     1     1 B6      JetBlue Airways         
## 10  2013     1     1 AA      American Airlines Inc.  
## # ... with 336,766 more rows

full_join()

flights%>%
  full_join(airlines,by="carrier")

## # A tibble: 336,776 x 20
##     year month   day dep_time sched_dep_time dep_delay arr_time sched_arr_time
##    <int> <int> <int>    <int>          <int>     <dbl>    <int>          <int>
##  1  2013     1     1      517            515         2      830            819
##  2  2013     1     1      533            529         4      850            830
##  3  2013     1     1      542            540         2      923            850
##  4  2013     1     1      544            545        -1     1004           1022
##  5  2013     1     1      554            600        -6      812            837
##  6  2013     1     1      554            558        -4      740            728
##  7  2013     1     1      555            600        -5      913            854
##  8  2013     1     1      557            600        -3      709            723
##  9  2013     1     1      557            600        -3      838            846
## 10  2013     1     1      558            600        -2      753            745
## # ... with 336,766 more rows, and 12 more variables: arr_delay <dbl>,
## #   carrier <chr>, flight <int>, tailnum <chr>, origin <chr>, dest <chr>,
## #   air_time <dbl>, distance <dbl>, hour <dbl>, minute <dbl>, time_hour <dttm>,
## #   name <chr>
…
